{
	"server": "0.0.0.0",
	"port": "4723",
	"environments": {
		"galaxy_s9_Plus": {
			"deviceName": "Samsung galaxy s8",
			"platformName": "Android",
			"platformVersion": "8.0.0",
			"enableNotificationListener": "true",
			"autoGrantPermissions": "true",
			"autoAcceptAlerts": "true",
			"unicodeKeyboard": "true",
			"resetKeyboard": "true",
			"locale": "US",
			"language": "en"
		},
		"Android_French": {
			"deviceName": "chrome",
			"platformName": "Android",
			"platformVersion": "",
			"app": "",
			"appPackage": "",
			"appActivity": "",
			"enableNotificationListener": "true",
			"newCommandTimeout": "10000",
			"autoGrantPermissions": "true",
			"autoAcceptAlerts": "true",
			"unicodeKeyboard": "true",
			"resetKeyboard": "true",
			"locale": "US",
			"language": "en",
			"resetOnSessionStartOnly": "true"
		},
		"iOS_English": {
			"udid": "",
			"deviceName": "iPhoneX",
			"platformName": "iOS",
			"platformVersion": "12.4.1",
			"app": "",
			"bundleId": "",
			"AutoWebView": "true",
			"automationName": "XCUITest",
			"newCommandTimeout": "true",
			"autoGrantPermissions": "true",
			"autoAcceptAlerts": "true",
			"unicodeKeyboard": "true",
			"resetKeyboard": "true",
			"locale": "en_US",
			"language": "en",
			"resetOnSessionStartOnly": "true"
		}
	}
}