	{
		"server": "hub-cloud.browserstack.com",
		"user": "abhinaya2",
		"key": "ewWxjHYeEHgvbrDLbFtp",
		"capabilities": {
			"name": "Automation Testing",
			"browserstack.debug": "false",
			"browserstack.idleTimeout": "50"
		},
		"environments": {
			"chrome": {
				"browser": "chrome"
			},
			"galaxy_s7_Chrome": {
				"device": "Samsung Galaxy S7",
				"realMobile": "true",
				"os_version": "6.0",
				"browser": "chrome"
			},
			"iPhone_8_Safari": {
				"device": "iPhone 8",
				"realMobile": "true",
				"os_version": "12"
			},
			"firefox": {
				"browser": "firefox"
			},
			"safari": {
				"browser": "safari"
			},
			"galaxy_s9_Plus": {
				"device": "Samsung Galaxy S9 Plus",
				"realMobile": "true",
				"os_version": "9.0",
				"autoAcceptAlerts": "false",
				"autoGrantPermissions": "true",
				"unicodeKeyboard": "true",
				"resetKeyboard": "true",
				"app": "abhinaya2/AirCanadaMobile_android"
			},
			"galaxy_s10": {
				"device": "Samsung Galaxy S10",
				"realMobile": "true",
				"os_version": "9.0",
				"autoAcceptAlerts": "true",
				"autoGrantPermissions": "true",
				"ignoreUnimportantViews": "true",
				"newCommandTimeout": "600",
				"unicodeKeyboard": "true",
				"resetKeyboard": "true",
				"app": "abhinaya2/AirCanadaMobile_android"
			},
			"galaxy_note_10_Plus": {
				"device": "Samsung Galaxy Note 10 Plus",
				"realMobile": "true",
				"os_version": "9.0",
				"autoAcceptAlerts": "true",
				"autoGrantPermissions": "true",
				"newCommandTimeout": "600",
				"ignoreUnimportantViews": "true",
				"unicodeKeyboard": "true",
				"resetKeyboard": "true",
				"app": "abhinaya2/AirCanadaMobile_android"
			},
			"galaxy_note_8": {
				"device": "Samsung Galaxy Note 8",
				"realMobile": "true",
				"os_version": "7.1",
				"autoAcceptAlerts": "true",
				"autoGrantPermissions": "true",
				"newCommandTimeout": "600",
				"ignoreUnimportantViews": "true",
				"unicodeKeyboard": "true",
				"resetKeyboard": "true",
				"app": "abhinaya2/AirCanadaMobile_android"
			},
			"google_Pixel_3A": {
				"device": "Google Pixel 3a",
				"realMobile": "true",
				"os_version": "9.0",
				"autoAcceptAlerts": "true",
				"autoGrantPermissions": "true",
				"newCommandTimeout": "600",
				"ignoreUnimportantViews": "true",
				"unicodeKeyboard": "true",
				"resetKeyboard": "true",
				"app": "abhinaya2/AirCanadaMobile_android"
			},
			"galaxy_tab_S4": {
				"device": "Samsung Galaxy Tab S4",
				"realMobile": "true",
				"os_version": "8.1",
				"autoAcceptAlerts": "true",
				"autoGrantPermissions": "true",
				"newCommandTimeout": "600",
				"ignoreUnimportantViews": "true",
				"unicodeKeyboard": "true",
				"resetKeyboard": "true",
				"app": "abhinaya2/AirCanadaMobile_android"
			},
			"galaxy_s8_Plus": {
				"device": "Samsung Galaxy S8 Plus",
				"realMobile": "true",
				"os_version": "9.0",
				"autoAcceptAlerts": "true",
				"autoGrantPermissions": "true",
				"newCommandTimeout": "600",
				"ignoreUnimportantViews": "true",
				"unicodeKeyboard": "true",
				"resetKeyboard": "true",
				"app": "abhinaya2/AirCanadaMobile_android"
			},
			"one_Plus": {
				"device": "OnePlus 7",
				"realMobile": "true",
				"os_version": "9.0",
				"autoAcceptAlerts": "true",
				"autoGrantPermissions": "true",
				"newCommandTimeout": "600",
				"ignoreUnimportantViews": "true",
				"unicodeKeyboard": "true",
				"resetKeyboard": "true",
				"app": "abhinaya2/AirCanadaMobile_android"
			},
			"iPhone_XS": {
				"device": "iPhone XS",
				"realMobile": "true",
				"os_version": "12",
				"autoAcceptAlerts": "true",
				"autoGrantPermissions": "true",
				"simpleIsVisibleCheck": "true",
				"unicodeKeyboard": "true",
				"resetKeyboard": "true",
				"app": "abhinaya2/AirCanadaMobile_ios"
			},
			"iPhone_XR": {
				"device": "iPhone XR",
				"realMobile": "true",
				"os_version": "12",
				"autoAcceptAlerts": "false",
				"simpleIsVisibleCheck": "true",
				"autoGrantPermissions": "true",
				"unicodeKeyboard": "true",
				"resetKeyboard": "true",
				"app": "abhinaya2/AirCanadaMobile_ios"
			},
			"iPhone_X": {
				"device": "iPhone X",
				"realMobile": "true",
				"os_version": "11",
				"autoAcceptAlerts": "true",
				"simpleIsVisibleCheck": "true",
				"autoGrantPermissions": "true",
				"unicodeKeyboard": "true",
				"resetKeyboard": "true",
				"app": "abhinaya2/AirCanadaMobile_ios"
			},
			"iPhone_XS_MAX": {
				"device": "iPhone X",
				"realMobile": "true",
				"os_version": "11",
				"autoAcceptAlerts": "true",
				"autoGrantPermissions": "true",
				"simpleIsVisibleCheck": "true",
				"unicodeKeyboard": "true",
				"resetKeyboard": "true",
				"app": "abhinaya2/AirCanadaMobile_ios"
			},
			"iPhone_8": {
				"device": "iPhone 8",
				"realMobile": "true",
				"os_version": "12",
				"autoAcceptAlerts": "true",
				"autoGrantPermissions": "true",
				"simpleIsVisibleCheck": "true",
				"unicodeKeyboard": "true",
				"resetKeyboard": "true",
				"app": "abhinaya2/AirCanadaMobile_ios"
			},
			"iPhone_8_Plus": {
				"device": "iPhone 8 Plus",
				"realMobile": "true",
				"os_version": "11",
				"autoAcceptAlerts": "true",
				"autoGrantPermissions": "true",
				"simpleIsVisibleCheck": "true",
				"unicodeKeyboard": "true",
				"resetKeyboard": "true",
				"app": "abhinaya2/AirCanadaMobile_ios"
			},
			"iPhone_7": {
				"device": "iPhone 7",
				"realMobile": "true",
				"os_version": "12",
				"autoAcceptAlerts": "true",
				"autoGrantPermissions": "true",
				"simpleIsVisibleCheck": "true",
				"unicodeKeyboard": "true",
				"resetKeyboard": "true",
				"app": "abhinaya2/AirCanadaMobile_ios"
			},
			"iPad_Pro_12": {
				"device": "iPad Pro 12.9 2018",
				"realMobile": "true",
				"os_version": "12",
				"autoAcceptAlerts": "true",
				"autoGrantPermissions": "true",
				"simpleIsVisibleCheck": "true",
				"unicodeKeyboard": "true",
				"resetKeyboard": "true",
				"app": "abhinaya2/AirCanadaMobile_ios"
			}
		},
		"Locale_language": {
			"Android_French": {
				"locale": "CA",
				"language": "fr"
			},
			"Android_English": {
				"locale": "US",
				"language": "en"
			},
			"iOS_French": {
				"locale": "fr_CA",
				"language": "fr"
			},
			"iOS_English": {
				"locale": "en_US",
				"language": "en"
			}
		}
	}